{
  "title":              "Chocolissimo",
  "preview":            "preview",
  "preview_link":       "http://newsletter.chocolissimo.de/m/[MAILING_ID]/[HASH]",

  "logo_link":          "https://chocolissimo.de?utm_source=newsletter&utm_medium=newsletter-270619&utm_campaign=Newsletter2019&utm_term=logo",

  "kv_photo_link":      "https://www.chocolissimo.de/do/cat/pralinen-fuer-sorten-liebhaber/Fuer-Sorten-Liebhaber?utm_source=newsletter&utm_medium=newsletter-270619&utm_campaign=Newsletter2019&utm_term=KV",
  "kv_cta_link":        "https://www.chocolissimo.de/do/cat/pralinen-fuer-sorten-liebhaber/Fuer-Sorten-Liebhaber?utm_source=newsletter&utm_medium=newsletter-270619&utm_campaign=Newsletter2019&utm_term=KV_CTA",

  "product_1_link":     "https://www.chocolissimo.de/do/item/3381-PLXXXX/Fresh-Lemon-Obsession?utm_source=newsletter&utm_medium=newsletter-270619&utm_campaign=Newsletter2019&utm_term=Fresh_Lemon",
  "product_1_cta_link": "https://www.chocolissimo.de/do/item/3381-PLXXXX/Fresh-Lemon-Obsession?utm_source=newsletter&utm_medium=newsletter-270619&utm_campaign=Newsletter2019&utm_term=Fresh_Lemon_CTA",

  "product_2_link":     "https://www.chocolissimo.de/do/item/1985-DEXXXX/Pralinen-Mix?utm_source=newsletter&utm_medium=newsletter-270619&utm_campaign=Newsletter2019&utm_term=Pralinen_Mix",
  "product_2_cta_link": "https://www.chocolissimo.de/do/item/1985-DEXXXX/Pralinen-Mix?utm_source=newsletter&utm_medium=newsletter-270619&utm_campaign=Newsletter2019&utm_term=Pralinen_Mix_CTA",

  "product_3_link":     "https://www.chocolissimo.de/do/item/1210-PLXXXX/Fruit-Obsession?utm_source=newsletter&utm_medium=newsletter-270619&utm_campaign=Newsletter2019&utm_term=Fruit_Obsession",
  "product_3_cta_link": "https://www.chocolissimo.de/do/item/1210-PLXXXX/Fruit-Obsession?utm_source=newsletter&utm_medium=newsletter-270619&utm_campaign=Newsletter2019&utm_term=Fruit_Obsession_CTA",

  "product_4_link":     "https://www.chocolissimo.de/do/item/0852-DEXXXX/FreshFruity-Maxi?utm_source=newsletter&utm_medium=newsletter-270619&utm_campaign=Newsletter2019&utm_term=Fresh_Fruity_Maxi",
  "product_4_cta_link": "https://www.chocolissimo.de/do/item/0852-DEXXXX/FreshFruity-Maxi?utm_source=newsletter&utm_medium=newsletter-270619&utm_campaign=Newsletter2019&utm_term=Fresh_Fruity_Maxi_CTA",

  "banner_photo_link":  "https://www.chocolissimo.de/do/choco/addons?utm_source=newsletter&utm_medium=newsletter-270619&utm_campaign=Newsletter2019&utm_term=addons",
  "banner_cta_link":    "https://www.chocolissimo.de/do/choco/addons?utm_source=newsletter&utm_medium=newsletter-270619&utm_campaign=Newsletter2019&utm_term=addons_CTA",

  "icon_1_link":        "https://www.chocolissimo.de/do/page/versandinformationen?utm_source=newsletter&utm_medium=newsletter-270619&utm_campaign=Newsletter2019&utm_term=lieferung",
  "icon_2_link":        "https://www.chocolissimo.de/do/page/geschenk?utm_source=newsletter&utm_medium=newsletter-270619&utm_campaign=Newsletter2019&utm_term=geschenk",
  "icon_3_link":        "https://www.chocolissimo.de/do/page/qualitaetsversprechen?utm_source=newsletter&utm_medium=newsletter-270619&utm_campaign=Newsletter2019&utm_term=qualitaetsversprechen",

  "social_fb_link":     "https://www.facebook.com/chocolissimo.de?utm_source=newsletter&utm_medium=newsletter-270619&utm_campaign=Newsletter2019&utm_term=fb",
  "social_in_link":     "https://www.instagram.com/chocolissimo_de/?utm_source=newsletter&utm_medium=newsletter-270619&utm_campaign=Newsletter2019&utm_term=insta",

  "unsubscribe":        "http://newsletter.chocolissimo.de/rmftlp.php?cid=[CTID]&amp;mid=[MAILING_ID]&amp;h=[CTID]-[USER_ID_SECURE]"
}